[gd_scene load_steps=5 format=2]

[ext_resource path="res://Game/Common/Projectiles/Bullets/MyBulletProjectile.tscn" type="PackedScene" id=1]
[ext_resource path="res://Content/Shaders/AlbedoShader.shader" type="Shader" id=2]
[ext_resource path="res://Content/Textures/Bullet_Flare.png" type="Texture" id=5]

[sub_resource type="ShaderMaterial" id=1]
shader = ExtResource( 2 )
shader_param/Albedo = Color( 0, 1, 0, 1 )
shader_param/Texture = ExtResource( 5 )

[node name="MyBulletProjectile" instance=ExtResource( 1 )]

[node name="MyBulletFlare" parent="." index="1"]
visible = true
material = SubResource( 1 )
