[gd_scene load_steps=6 format=2]

[ext_resource path="res://Game/Common/Vehicles/Components/Guns/MyTurret.tscn" type="PackedScene" id=1]
[ext_resource path="res://Content/Textures/MG12mm_Base..png" type="Texture" id=2]
[ext_resource path="res://Content/Textures/White_16.png" type="Texture" id=3]
[ext_resource path="res://Content/Textures/MG12mm_Destroyed.png" type="Texture" id=4]
[ext_resource path="res://Content/Sounds/12mm.wav" type="AudioStream" id=5]

[node name="My12mmTurret" instance=ExtResource( 1 )]
rotation = 3.14159
MaxHeal = 200
ExplosionChancePerDamage = 0.1
BaseTexture = ExtResource( 2 )
DamagedTexture = ExtResource( 2 )
DestroyedTexture = ExtResource( 4 )
AmmoCount = 300
RateOfFire = 600.0
AngleOfDispertion = 1.0

[node name="Sprite" parent="." index="2"]
position = Vector2( 3, 1 )
texture = ExtResource( 3 )
flip_v = true

[node name="Muzzle" parent="." index="4"]
position = Vector2( 11, 1.5 )

[node name="AudioStreamPlayer2D" parent="." index="5"]
stream = ExtResource( 5 )
