[gd_scene load_steps=7 format=2]

[ext_resource path="res://Game/Common/Vehicles/Components/MyComponent.tscn" type="PackedScene" id=1]
[ext_resource path="res://Content/Textures/Large_Tail_Damaged.png" type="Texture" id=2]
[ext_resource path="res://Content/Shaders/RecolorShader.shader" type="Shader" id=4]
[ext_resource path="res://Content/Textures/Large_Tail_Base.png" type="Texture" id=5]

[sub_resource type="ShaderMaterial" id=1]
shader = ExtResource( 4 )
shader_param/Tolerance = 0.1
shader_param/ColorAlpha = Color( 1, 1, 1, 1 )
shader_param/Texture = ExtResource( 5 )

[sub_resource type="ConvexPolygonShape2D" id=2]
points = PoolVector2Array( -12, -12, -12, 2, -8, 6, 8, 6, 12, -2, 2, -2, -6, -12 )

[node name="MyLargeTail" instance=ExtResource( 1 )]
MaxHeal = 1600
CanBurn = true
CanSmoke = true
FireScale = 0.5
ComponentType = 3
BaseTexture = ExtResource( 5 )
DamagedTexture = ExtResource( 2 )

[node name="Sprite" parent="." index="2"]
material = SubResource( 1 )

[node name="CollisionShape" parent="." index="3"]
visible = false
shape = SubResource( 2 )
