[gd_scene load_steps=8 format=2]

[ext_resource path="res://Content/Textures/Bomber_ForBotBody_Destroyed.png" type="Texture" id=1]
[ext_resource path="res://Content/Textures/Bomber_ForBotBody_Base.png" type="Texture" id=2]
[ext_resource path="res://Content/Textures/Bomber_ForBotBody_Damaged.png" type="Texture" id=3]
[ext_resource path="res://Content/Shaders/RecolorShader.shader" type="Shader" id=4]
[ext_resource path="res://Game/Common/Vehicles/Components/MyComponent.tscn" type="PackedScene" id=5]

[sub_resource type="ShaderMaterial" id=1]
shader = ExtResource( 4 )
shader_param/Tolerance = 0.1
shader_param/ColorAlpha = Color( 1, 1, 1, 1 )
shader_param/Texture = ExtResource( 2 )

[sub_resource type="ConvexPolygonShape2D" id=2]
points = PoolVector2Array( -11, 6, 12, 7, 12, 1, -10, 1 )

[node name="MyFroUpBody" instance=ExtResource( 5 )]
CanBurn = true
CanSmoke = true
FireScale = 0.75
ComponentType = 4
BaseTexture = ExtResource( 2 )
DamagedTexture = ExtResource( 3 )
DestroyedTexture = ExtResource( 1 )

[node name="Sprite" parent="." index="2"]
material = SubResource( 1 )

[node name="CollisionShape" parent="." index="3"]
visible = false
shape = SubResource( 2 )
