[gd_scene load_steps=8 format=2]

[ext_resource path="res://Game/Common/Vehicles/Components/Guns/MyGun.tscn" type="PackedScene" id=1]
[ext_resource path="res://Content/Textures/MG37mm_Destroyed..png" type="Texture" id=2]
[ext_resource path="res://Content/Shaders/RecolorShader.shader" type="Shader" id=4]
[ext_resource path="res://Content/Sounds/37mm.wav" type="AudioStream" id=5]
[ext_resource path="res://Content/Textures/MG37mm_Base..png" type="Texture" id=6]

[sub_resource type="ShaderMaterial" id=1]
shader = ExtResource( 4 )
shader_param/Tolerance = 0.1
shader_param/ColorAlpha = Color( 1, 1, 1, 1 )
shader_param/Texture = ExtResource( 6 )

[sub_resource type="RectangleShape2D" id=2]
extents = Vector2( 13, 2 )

[node name="My37mmGun" instance=ExtResource( 1 )]
MaxHeal = 500
ExplosionChancePerDamage = 0.5
BaseTexture = ExtResource( 6 )
DamagedTexture = ExtResource( 6 )
DestroyedTexture = ExtResource( 2 )
AmmoCount = 60
RateOfFire = 240.0
AngleOfDispertion = 4.0
AmmoScale = 1.5

[node name="Sprite" parent="." index="2"]
material = SubResource( 1 )

[node name="CollisionShape" parent="." index="3"]
position = Vector2( 3, 0 )
shape = SubResource( 2 )

[node name="Muzzle" parent="." index="4"]
position = Vector2( 15, -1 )

[node name="AudioStreamPlayer2D" parent="." index="5"]
stream = ExtResource( 5 )
